sample_ID,Genotype,Tissue,Replicate,dev_stage
SRR12744721,Williams82,hypocotyl,1,VC stage
SRR12744738,Williams82,meristem,2,VC stage
SRR12744744,Williams82,root,3,VC stage
SRR12744745,Williams82,root,4,VC stage
SRR12744746,Williams82,root,5,VC stage
SRR12744747,Williams82,hypocotyl,6,VC stage
SRR12744748,Williams82,hypocotyl,7,VC stage
SRR12744749,Williams82,meristem,8,VC stage
SRR12744750,Williams82,meristem,9,VC stage
SRR7239882,Williams 82,leaf,10,V2 stage
SRR7239883,Williams 82,leaf,11,V2 stage
SRR7239884,Williams 82,leaf,12,V2 stage
SRR7239885,Williams 82,leaf,13,V2 stage
SRR7239886,Williams 82,leaf,14,V2 stage
SRR7239887,Williams 82,leaf,15,V2 stage
SRR9995602,Williams 82,root,16,15 days
SRR9995603,Williams 82,root,17,15 days
SRR9995604,Williams 82,root,18,15 days
SRR9995605,Williams 82,root,19,25 days
SRR9995608,Williams 82,root,20,39 days
SRR9995609,Williams 82,root,21,39 days
SRR9995610,Williams 82,root,22,39 days
SRR17626132,Willams 82,leaf,23,35 days
SRR17626133,Willams 82,leaf,24,35 days
SRR17626134,Willams 82,leaf,25,35 days
SRR17626135,Willams 82,leaf,26,35 days
SRR17626136,Willams 82,leaf,27,35 days
SRR17626137,Willams 82,leaf,28,35 days
SRR17626138,Willams 82,leaf,29,35 days
SRR17626139,Willams 82,leaf,30,35 days
SRR17626140,Willams 82,leaf,31,35 days
SRR17626141,Willams 82,leaf,32,35 days
SRR17626142,Willams 82,leaf,33,35 days
SRR17626143,Willams 82,leaf,34,35 days
SRR15311247,Williams82,root,35,7days
SRR15311248,Williams82,root,36,7days
SRR15311249,Williams82,root,37,7days
SRR15311250,Williams82,root,38,12days
SRR15311251,Williams82,root,39,12days
SRR15311252,Williams82,root,40,12days
SRR15311253,Williams82,root,41,12days
SRR15311254,Williams82,root,42,12days
SRR15311255,Williams82,root,43,12days
SRR15311256,Williams82,root,44,12days
SRR15311257,Williams82,root,45,12days
SRR15311258,Williams82,root,46,7days
SRR15311259,Williams82,root,47,12days
SRR15311260,Williams82,root,48,12days
SRR15311261,Williams82,root,49,12days
SRR15311262,Williams82,root,50,17day
SRR15311263,Williams82,root,51,17day
SRR15311264,Williams82,root,52,17days
SRR15311265,Williams82,root,53,17days
SRR15311266,Williams82,root,54,17days
SRR15311267,Williams82,root,55,17day
SRR15311268,Williams82,root,56,17days
SRR15311269,Williams82,root,57,7days
SRR15311270,Williams82,root,58,17days
SRR15311271,Williams82,root,59,17days
SRR15311272,Williams82,root,60,17days
SRR15311273,Williams82,root,61,17days
SRR15311274,Williams82,root,62,17days
SRR15311275,Williams82,root,63,7days
SRR15311276,Williams,root,64,7days
SRR15311277,Williams82,root,65,7days
SRR15311278,Williams82,root,66,7days
SRR15311279,Williams82,root,67,7days
SRR15311280,Williams82,root,68,7days
SRR15311281,Williams82,root,69,7days
SRR15506176,Williams 82,leaf,70,20 days after emergence
SRR15506177,Williams 82,leaf,71,20 days after emergence